Counters/usr.vcd
$date
	Wed Aug 21 10:12:10 2019
$end
$version
	Icarus Verilog
$end
$timescale
	1s
$end
$scope module top $end
$var wire 4 ! out [3:0] $end
$var reg 1 " clk $end
$var reg 4 # q [3:0] $end
$var reg 1 $ reset $end
$var reg 2 % sum [1:0] $end
$scope module usr_tb $end
$var wire 1 " clk $end
$var wire 4 & q [3:0] $end
$var wire 1 $ reset $end
$var wire 2 ' sum [1:0] $end
$var wire 4 ( w [3:0] $end
$var wire 4 ) out [3:0] $end
$scope module d0 $end
$var wire 1 " clk $end
$var wire 1 * d $end
$var wire 1 $ reset $end
$var reg 1 + q $end
$upscope $end
$scope module d1 $end
$var wire 1 " clk $end
$var wire 1 , d $end
$var wire 1 $ reset $end
$var reg 1 - q $end
$upscope $end
$scope module d2 $end
$var wire 1 " clk $end
$var wire 1 . d $end
$var wire 1 $ reset $end
$var reg 1 / q $end
$upscope $end
$scope module d3 $end
$var wire 1 " clk $end
$var wire 1 0 d $end
$var wire 1 $ reset $end
$var reg 1 1 q $end
$upscope $end
$scope module m0 $end
$var wire 1 2 a $end
$var wire 1 3 b $end
$var wire 1 4 c $end
$var wire 1 5 d $end
$var wire 2 6 sum [1:0] $end
$var reg 1 7 out $end
$upscope $end
$scope module m1 $end
$var wire 1 8 a $end
$var wire 1 9 b $end
$var wire 1 : c $end
$var wire 1 ; d $end
$var wire 2 < sum [1:0] $end
$var reg 1 = out $end
$upscope $end
$scope module m2 $end
$var wire 1 > a $end
$var wire 1 ? b $end
$var wire 1 @ c $end
$var wire 1 A d $end
$var wire 2 B sum [1:0] $end
$var reg 1 C out $end
$upscope $end
$scope module m3 $end
$var wire 1 D a $end
$var wire 1 E b $end
$var wire 1 F c $end
$var wire 1 G d $end
$var wire 2 H sum [1:0] $end
$var reg 1 I out $end
$upscope $end
$upscope $end
$upscope $end
$enddefinitions $end
#0
$dumpvars
1I
b11 H
1G
0F
0E
0D
0C
b11 B
0A
0@
0?
0>
1=
b11 <
1;
0:
09
08
17
b11 6
15
04
03
02
01
10
0/
0.
0-
1,
0+
1*
b0 )
b1011 (
b11 '
b1011 &
b11 %
1$
b1011 #
0"
b0 !
$end
#5
1D
1@
1?
18
14
19
12
11
1-
b1011 !
b1011 )
1+
0$
1"
#10
0"
#15
1"
#20
0*
1.
00
07
1C
b110 (
0I
0"
b1 %
b1 '
b1 6
b1 <
b1 B
b1 H
#25
10
0,
1I
b1100 (
0=
0D
0@
1E
1>
1:
09
02
01
1/
b110 !
b110 )
0+
1"
#30
1*
1,
0.
00
17
1=
0C
b11 (
0I
0"
b10 %
b10 '
b10 6
b10 <
b10 B
b10 H
#35
0,
b1 (
0=
19
12
0E
0>
0:
1+
b11 !
b11 )
0/
1"
#40
1,
b11 (
1=
0"
b0 %
b0 '
b0 6
b0 <
b0 B
b0 H
#45
1"
#50
10
b1011 (
1I
0"
b11 %
b11 '
b11 6
b11 <
b11 B
b11 H
#55
1D
1@
b1011 !
b1011 )
11
1"
#60
0*
1.
00
07
1C
b110 (
0I
0"
b1 %
b1 '
b1 6
b1 <
b1 B
b1 H
#65
10
0,
1I
b1100 (
0=
0D
0@
1E
1>
1:
09
02
01
1/
b110 !
b110 )
0+
1"
#70
1*
1,
0.
00
17
1=
0C
b11 (
0I
0"
b10 %
b10 '
b10 6
b10 <
b10 B
b10 H
#75
0,
b1 (
0=
19
12
0E
0>
0:
1+
b11 !
b11 )
0/
1"
#80
1,
b11 (
1=
0"
b0 %
b0 '
b0 6
b0 <
b0 B
b0 H
#85
1"
#90
10
b1011 (
1I
0"
b11 %
b11 '
b11 6
b11 <
b11 B
b11 H
#95
1D
1@
b1011 !
b1011 )
11
1"
#100
0*
1.
00
07
1C
b110 (
0I
0"
b1 %
b1 '
b1 6
b1 <
b1 B
b1 H
